#FIG 3.2  Produced by xfig version 3.2.5b
Landscape
Center
Metric
A4      
100.00
Single
-2
1200 2
2 2 0 1 7 7 50 -1 -1 0.000 0 0 -1 0 0 5
	 4725 3600 5625 3600 5625 4500 4725 4500 4725 3600
2 2 0 1 0 0 51 -1 20 0.000 0 0 -1 0 0 5
	 4635 3510 5715 3510 5715 4590 4635 4590 4635 3510
2 5 0 1 0 -1 50 -1 -1 0.000 0 0 -1 0 0 5
	0 bombe-inv.png
	 4770 4140 5085 4140 5085 4429 4770 4429 4770 4140
4 2 7 50 -1 10 14 0.0000 4 165 795 5580 4095 BASIC\001
4 2 7 50 -1 10 14 0.0000 4 165 525 5580 3870 X11\001
4 2 7 50 -1 10 10 0.0000 4 105 375 5580 4410 1.27\001
